(kicad_sch (version 20201015) (generator eeschema)

  (page 1 3)

  (paper "A4")

  (lib_symbols
    (symbol "Device:Antenna" (pin_numbers hide) (pin_names (offset 1.016) hide) (in_bom yes) (on_board yes)
      (property "Reference" "AE" (id 0) (at -1.905 1.905 0)
        (effects (font (size 1.27 1.27)) (justify right))
      )
      (property "Value" "Antenna" (id 1) (at -1.905 0 0)
        (effects (font (size 1.27 1.27)) (justify right))
      )
      (property "Footprint" "" (id 2) (at 0 0 0)
        (effects (font (size 1.27 1.27)) hide)
      )
      (property "Datasheet" "~" (id 3) (at 0 0 0)
        (effects (font (size 1.27 1.27)) hide)
      )
      (property "ki_keywords" "antenna" (id 4) (at 0 0 0)
        (effects (font (size 1.27 1.27)) hide)
      )
      (property "ki_description" "Antenna" (id 5) (at 0 0 0)
        (effects (font (size 1.27 1.27)) hide)
      )
      (symbol "Antenna_0_1"
        (polyline
          (pts
            (xy 0 2.54)
            (xy 0 -3.81)
          )
          (stroke (width 0.254)) (fill (type none))
        )
        (polyline
          (pts
            (xy 1.27 2.54)
            (xy 0 -2.54)
            (xy -1.27 2.54)
          )
          (stroke (width 0.254)) (fill (type none))
        )
      )
      (symbol "Antenna_1_1"
        (pin input line (at 0 -5.08 90) (length 2.54)
          (name "A" (effects (font (size 1.27 1.27))))
          (number "1" (effects (font (size 1.27 1.27))))
        )
      )
    )
    (symbol "RF_Module:RFM95W-868S2" (pin_names (offset 1.016)) (in_bom yes) (on_board yes)
      (property "Reference" "U" (id 0) (at -10.414 11.684 0)
        (effects (font (size 1.27 1.27)) (justify left))
      )
      (property "Value" "RFM95W-868S2" (id 1) (at 1.524 11.43 0)
        (effects (font (size 1.27 1.27)) (justify left))
      )
      (property "Footprint" "" (id 2) (at -83.82 41.91 0)
        (effects (font (size 1.27 1.27)) hide)
      )
      (property "Datasheet" "https://www.hoperf.com/data/upload/portal/20181127/5bfcbea20e9ef.pdf" (id 3) (at -83.82 41.91 0)
        (effects (font (size 1.27 1.27)) hide)
      )
      (property "ki_keywords" "Low power long range transceiver module" (id 4) (at 0 0 0)
        (effects (font (size 1.27 1.27)) hide)
      )
      (property "ki_description" "Low power long range transceiver module, SPI and parallel interface, 868 MHz, spreading factor 6 to12, bandwith 7.8 to 500kHz, -111 to -148 dBm, SMD-16, DIP-16" (id 5) (at 0 0 0)
        (effects (font (size 1.27 1.27)) hide)
      )
      (property "ki_fp_filters" "HOPERF*RFM9XW*" (id 6) (at 0 0 0)
        (effects (font (size 1.27 1.27)) hide)
      )
      (symbol "RFM95W-868S2_0_1"
        (rectangle (start -10.16 10.16) (end 10.16 -12.7)
          (stroke (width 0.254)) (fill (type background))
        )
      )
      (symbol "RFM95W-868S2_1_1"
        (pin power_in line (at -2.54 -15.24 90) (length 2.54)
          (name "GND" (effects (font (size 1.27 1.27))))
          (number "1" (effects (font (size 1.27 1.27))))
        )
        (pin power_in line (at 2.54 -15.24 90) (length 2.54)
          (name "GND" (effects (font (size 1.27 1.27))))
          (number "10" (effects (font (size 1.27 1.27))))
        )
        (pin bidirectional line (at 12.7 -2.54 180) (length 2.54)
          (name "DIO3" (effects (font (size 1.27 1.27))))
          (number "11" (effects (font (size 1.27 1.27))))
        )
        (pin bidirectional line (at 12.7 0 180) (length 2.54)
          (name "DIO4" (effects (font (size 1.27 1.27))))
          (number "12" (effects (font (size 1.27 1.27))))
        )
        (pin power_in line (at 0 12.7 270) (length 2.54)
          (name "3.3V" (effects (font (size 1.27 1.27))))
          (number "13" (effects (font (size 1.27 1.27))))
        )
        (pin bidirectional line (at 12.7 -10.16 180) (length 2.54)
          (name "DIO0" (effects (font (size 1.27 1.27))))
          (number "14" (effects (font (size 1.27 1.27))))
        )
        (pin bidirectional line (at 12.7 -7.62 180) (length 2.54)
          (name "DIO1" (effects (font (size 1.27 1.27))))
          (number "15" (effects (font (size 1.27 1.27))))
        )
        (pin bidirectional line (at 12.7 -5.08 180) (length 2.54)
          (name "DIO2" (effects (font (size 1.27 1.27))))
          (number "16" (effects (font (size 1.27 1.27))))
        )
        (pin output line (at -12.7 2.54 0) (length 2.54)
          (name "MISO" (effects (font (size 1.27 1.27))))
          (number "2" (effects (font (size 1.27 1.27))))
        )
        (pin input line (at -12.7 5.08 0) (length 2.54)
          (name "MOSI" (effects (font (size 1.27 1.27))))
          (number "3" (effects (font (size 1.27 1.27))))
        )
        (pin input line (at -12.7 7.62 0) (length 2.54)
          (name "SCK" (effects (font (size 1.27 1.27))))
          (number "4" (effects (font (size 1.27 1.27))))
        )
        (pin input line (at -12.7 0 0) (length 2.54)
          (name "NSS" (effects (font (size 1.27 1.27))))
          (number "5" (effects (font (size 1.27 1.27))))
        )
        (pin bidirectional line (at -12.7 -5.08 0) (length 2.54)
          (name "RESET" (effects (font (size 1.27 1.27))))
          (number "6" (effects (font (size 1.27 1.27))))
        )
        (pin bidirectional line (at 12.7 2.54 180) (length 2.54)
          (name "DIO5" (effects (font (size 1.27 1.27))))
          (number "7" (effects (font (size 1.27 1.27))))
        )
        (pin power_in line (at 0 -15.24 90) (length 2.54)
          (name "GND" (effects (font (size 1.27 1.27))))
          (number "8" (effects (font (size 1.27 1.27))))
        )
        (pin bidirectional line (at 12.7 7.62 180) (length 2.54)
          (name "ANT" (effects (font (size 1.27 1.27))))
          (number "9" (effects (font (size 1.27 1.27))))
        )
      )
    )
    (symbol "power:+3V3" (power) (pin_names (offset 0)) (in_bom yes) (on_board yes)
      (property "Reference" "#PWR" (id 0) (at 0 -3.81 0)
        (effects (font (size 1.27 1.27)) hide)
      )
      (property "Value" "+3V3" (id 1) (at 0 3.556 0)
        (effects (font (size 1.27 1.27)))
      )
      (property "Footprint" "" (id 2) (at 0 0 0)
        (effects (font (size 1.27 1.27)) hide)
      )
      (property "Datasheet" "" (id 3) (at 0 0 0)
        (effects (font (size 1.27 1.27)) hide)
      )
      (property "ki_keywords" "power-flag" (id 4) (at 0 0 0)
        (effects (font (size 1.27 1.27)) hide)
      )
      (property "ki_description" "Power symbol creates a global label with name \"+3V3\"" (id 5) (at 0 0 0)
        (effects (font (size 1.27 1.27)) hide)
      )
      (symbol "+3V3_0_1"
        (polyline
          (pts
            (xy -0.762 1.27)
            (xy 0 2.54)
          )
          (stroke (width 0)) (fill (type none))
        )
        (polyline
          (pts
            (xy 0 0)
            (xy 0 2.54)
          )
          (stroke (width 0)) (fill (type none))
        )
        (polyline
          (pts
            (xy 0 2.54)
            (xy 0.762 1.27)
          )
          (stroke (width 0)) (fill (type none))
        )
      )
      (symbol "+3V3_1_1"
        (pin power_in line (at 0 0 90) (length 0) hide
          (name "+3V3" (effects (font (size 1.27 1.27))))
          (number "1" (effects (font (size 1.27 1.27))))
        )
      )
    )
    (symbol "power:GND" (power) (pin_names (offset 0)) (in_bom yes) (on_board yes)
      (property "Reference" "#PWR" (id 0) (at 0 -6.35 0)
        (effects (font (size 1.27 1.27)) hide)
      )
      (property "Value" "GND" (id 1) (at 0 -3.81 0)
        (effects (font (size 1.27 1.27)))
      )
      (property "Footprint" "" (id 2) (at 0 0 0)
        (effects (font (size 1.27 1.27)) hide)
      )
      (property "Datasheet" "" (id 3) (at 0 0 0)
        (effects (font (size 1.27 1.27)) hide)
      )
      (property "ki_keywords" "power-flag" (id 4) (at 0 0 0)
        (effects (font (size 1.27 1.27)) hide)
      )
      (property "ki_description" "Power symbol creates a global label with name \"GND\" , ground" (id 5) (at 0 0 0)
        (effects (font (size 1.27 1.27)) hide)
      )
      (symbol "GND_0_1"
        (polyline
          (pts
            (xy 0 0)
            (xy 0 -1.27)
            (xy 1.27 -1.27)
            (xy 0 -2.54)
            (xy -1.27 -1.27)
            (xy 0 -1.27)
          )
          (stroke (width 0)) (fill (type none))
        )
      )
      (symbol "GND_1_1"
        (pin power_in line (at 0 0 270) (length 0) hide
          (name "GND" (effects (font (size 1.27 1.27))))
          (number "1" (effects (font (size 1.27 1.27))))
        )
      )
    )
  )

  (junction (at 147.32 123.19) (diameter 1.016) (color 0 0 0 0))

  (wire (pts (xy 123.19 96.52) (xy 134.62 96.52))
    (stroke (width 0) (type solid) (color 0 0 0 0))
  )
  (wire (pts (xy 123.19 99.06) (xy 134.62 99.06))
    (stroke (width 0) (type solid) (color 0 0 0 0))
  )
  (wire (pts (xy 123.19 101.6) (xy 134.62 101.6))
    (stroke (width 0) (type solid) (color 0 0 0 0))
  )
  (wire (pts (xy 123.19 104.14) (xy 134.62 104.14))
    (stroke (width 0) (type solid) (color 0 0 0 0))
  )
  (wire (pts (xy 123.19 109.22) (xy 134.62 109.22))
    (stroke (width 0) (type solid) (color 0 0 0 0))
  )
  (wire (pts (xy 144.78 119.38) (xy 144.78 123.19))
    (stroke (width 0) (type solid) (color 0 0 0 0))
  )
  (wire (pts (xy 144.78 123.19) (xy 147.32 123.19))
    (stroke (width 0) (type solid) (color 0 0 0 0))
  )
  (wire (pts (xy 147.32 87.63) (xy 147.32 91.44))
    (stroke (width 0) (type solid) (color 0 0 0 0))
  )
  (wire (pts (xy 147.32 119.38) (xy 147.32 123.19))
    (stroke (width 0) (type solid) (color 0 0 0 0))
  )
  (wire (pts (xy 147.32 123.19) (xy 147.32 125.73))
    (stroke (width 0) (type solid) (color 0 0 0 0))
  )
  (wire (pts (xy 147.32 123.19) (xy 149.86 123.19))
    (stroke (width 0) (type solid) (color 0 0 0 0))
  )
  (wire (pts (xy 149.86 119.38) (xy 149.86 123.19))
    (stroke (width 0) (type solid) (color 0 0 0 0))
  )
  (wire (pts (xy 160.02 96.52) (xy 167.64 96.52))
    (stroke (width 0) (type solid) (color 0 0 0 0))
  )
  (wire (pts (xy 160.02 114.3) (xy 172.72 114.3))
    (stroke (width 0) (type solid) (color 0 0 0 0))
  )
  (wire (pts (xy 167.64 96.52) (xy 167.64 88.9))
    (stroke (width 0) (type solid) (color 0 0 0 0))
  )

  (label "SCK" (at 128.27 96.52 180)
    (effects (font (size 1.27 1.27)) (justify right bottom))
  )
  (label "MOSI" (at 128.27 99.06 180)
    (effects (font (size 1.27 1.27)) (justify right bottom))
  )
  (label "MISO" (at 128.27 101.6 180)
    (effects (font (size 1.27 1.27)) (justify right bottom))
  )
  (label "NSS" (at 128.27 104.14 180)
    (effects (font (size 1.27 1.27)) (justify right bottom))
  )
  (label "LORA_RESET" (at 134.62 109.22 180)
    (effects (font (size 1.27 1.27)) (justify right bottom))
  )
  (label "LORA_IO0" (at 172.72 114.3 180)
    (effects (font (size 1.27 1.27)) (justify right bottom))
  )

  (symbol (lib_id "power:+3V3") (at 147.32 87.63 0) (unit 1)
    (in_bom yes) (on_board yes)
    (uuid "cfef7b70-5281-404b-81b3-70820d284059")
    (property "Reference" "#PWR?" (id 0) (at 147.32 91.44 0)
      (effects (font (size 1.27 1.27)) hide)
    )
    (property "Value" "+3V3" (id 1) (at 147.6883 83.3056 0))
    (property "Footprint" "" (id 2) (at 147.32 87.63 0)
      (effects (font (size 1.27 1.27)) hide)
    )
    (property "Datasheet" "" (id 3) (at 147.32 87.63 0)
      (effects (font (size 1.27 1.27)) hide)
    )
  )

  (symbol (lib_id "power:GND") (at 147.32 125.73 0) (unit 1)
    (in_bom yes) (on_board yes)
    (uuid "e80d1f87-4249-4c7f-8776-eb3d76d9bd47")
    (property "Reference" "#PWR?" (id 0) (at 147.32 132.08 0)
      (effects (font (size 1.27 1.27)) hide)
    )
    (property "Value" "GND" (id 1) (at 147.4343 130.0544 0))
    (property "Footprint" "" (id 2) (at 147.32 125.73 0)
      (effects (font (size 1.27 1.27)) hide)
    )
    (property "Datasheet" "" (id 3) (at 147.32 125.73 0)
      (effects (font (size 1.27 1.27)) hide)
    )
  )

  (symbol (lib_id "Device:Antenna") (at 167.64 83.82 0) (unit 1)
    (in_bom yes) (on_board yes)
    (uuid "e9b21450-d0fd-461d-b90f-9a6543ef3047")
    (property "Reference" "AE?" (id 0) (at 169.6721 84.0676 0)
      (effects (font (size 1.27 1.27)) (justify left))
    )
    (property "Value" "Antenna" (id 1) (at 169.6721 86.3663 0)
      (effects (font (size 1.27 1.27)) (justify left))
    )
    (property "Footprint" "" (id 2) (at 167.64 83.82 0)
      (effects (font (size 1.27 1.27)) hide)
    )
    (property "Datasheet" "~" (id 3) (at 167.64 83.82 0)
      (effects (font (size 1.27 1.27)) hide)
    )
  )

  (symbol (lib_id "RF_Module:RFM95W-868S2") (at 147.32 104.14 0) (unit 1)
    (in_bom yes) (on_board yes)
    (uuid "c79aaeac-e762-4a20-abba-62d39693a605")
    (property "Reference" "U?" (id 0) (at 156.21 89.5158 0))
    (property "Value" "RFM95W-868S2" (id 1) (at 156.21 91.8145 0))
    (property "Footprint" "RF_Module:HOPERF_RFM9XW_SMD" (id 2) (at 63.5 62.23 0)
      (effects (font (size 1.27 1.27)) hide)
    )
    (property "Datasheet" "https://www.hoperf.com/data/upload/portal/20181127/5bfcbea20e9ef.pdf" (id 3) (at 63.5 62.23 0)
      (effects (font (size 1.27 1.27)) hide)
    )
  )
)
