(kicad_sch (version 20200828) (generator eeschema)

  (page 2 2)

  (paper "A4")

  (lib_symbols
    (symbol "Battery_Management:LTC3553" (pin_names (offset 1.016)) (in_bom yes) (on_board yes)
      (property "Reference" "U" (id 0) (at 15.24 -21.59 0)
        (effects (font (size 1.27 1.27)) (justify right top))
      )
      (property "Value" "LTC3553" (id 1) (at 15.24 21.59 0)
        (effects (font (size 1.27 1.27)) (justify right bottom))
      )
      (property "Footprint" "Package_DFN_QFN:QFN-20-1EP_3x3mm_P0.4mm_EP1.65x1.65mm" (id 2) (at 0 -1.27 0)
        (effects (font (size 1.27 1.27)) hide)
      )
      (property "Datasheet" "https://www.analog.com/media/en/technical-documentation/data-sheets/3553fc.pdf" (id 3) (at 0 -1.27 0)
        (effects (font (size 1.27 1.27)) hide)
      )
      (property "ki_keywords" "USB PMIC" (id 4) (at 0 0 0)
        (effects (font (size 1.27 1.27)) hide)
      )
      (property "ki_description" "Micropower USB Power Manager With Li-Ion Charger, LDO and Buck Regulator, 4.2V float, QFN-20" (id 5) (at 0 0 0)
        (effects (font (size 1.27 1.27)) hide)
      )
      (property "ki_fp_filters" "*QFN*3x3mm*P0.4mm*" (id 6) (at 0 0 0)
        (effects (font (size 1.27 1.27)) hide)
      )
      (symbol "LTC3553_0_1"
        (rectangle (start -15.24 20.32) (end 15.24 -20.32)
          (stroke (width 0.254)) (fill (type background))
        )
      )
      (symbol "LTC3553_1_1"
        (pin input line (at -17.78 17.78 0) (length 2.54)
          (name "HPWR" (effects (font (size 1.27 1.27))))
          (number "1" (effects (font (size 1.27 1.27))))
        )
        (pin power_out line (at 17.78 0 180) (length 2.54)
          (name "LDO" (effects (font (size 1.27 1.27))))
          (number "10" (effects (font (size 1.27 1.27))))
        )
        (pin power_in line (at 17.78 15.24 180) (length 2.54)
          (name "VINLDO" (effects (font (size 1.27 1.27))))
          (number "11" (effects (font (size 1.27 1.27))))
        )
        (pin power_in line (at 17.78 12.7 180) (length 2.54)
          (name "BVIN" (effects (font (size 1.27 1.27))))
          (number "12" (effects (font (size 1.27 1.27))))
        )
        (pin power_out line (at 17.78 -12.7 180) (length 2.54)
          (name "SW" (effects (font (size 1.27 1.27))))
          (number "13" (effects (font (size 1.27 1.27))))
        )
        (pin open_collector line (at -17.78 0 0) (length 2.54)
          (name "~CHRG~" (effects (font (size 1.27 1.27))))
          (number "14" (effects (font (size 1.27 1.27))))
        )
        (pin passive line (at 17.78 5.08 180) (length 2.54)
          (name "NTC" (effects (font (size 1.27 1.27))))
          (number "15" (effects (font (size 1.27 1.27))))
        )
        (pin passive line (at -17.78 -17.78 0) (length 2.54)
          (name "PROG" (effects (font (size 1.27 1.27))))
          (number "16" (effects (font (size 1.27 1.27))))
        )
        (pin power_out line (at 17.78 7.62 180) (length 2.54)
          (name "BAT" (effects (font (size 1.27 1.27))))
          (number "17" (effects (font (size 1.27 1.27))))
        )
        (pin power_out line (at 17.78 17.78 180) (length 2.54)
          (name "VOUT" (effects (font (size 1.27 1.27))))
          (number "18" (effects (font (size 1.27 1.27))))
        )
        (pin input line (at -17.78 15.24 0) (length 2.54)
          (name "SUSP" (effects (font (size 1.27 1.27))))
          (number "19" (effects (font (size 1.27 1.27))))
        )
        (pin input line (at -17.78 -12.7 0) (length 2.54)
          (name "SEQ" (effects (font (size 1.27 1.27))))
          (number "2" (effects (font (size 1.27 1.27))))
        )
        (pin power_in line (at 0 22.86 270) (length 2.54)
          (name "VBUS" (effects (font (size 1.27 1.27))))
          (number "20" (effects (font (size 1.27 1.27))))
        )
        (pin power_in line (at 0 -22.86 90) (length 2.54)
          (name "GND" (effects (font (size 1.27 1.27))))
          (number "21" (effects (font (size 1.27 1.27))))
        )
        (pin output line (at -17.78 -5.08 0) (length 2.54)
          (name "PBSTAT" (effects (font (size 1.27 1.27))))
          (number "3" (effects (font (size 1.27 1.27))))
        )
        (pin input line (at -17.78 -7.62 0) (length 2.54)
          (name "~ON~" (effects (font (size 1.27 1.27))))
          (number "4" (effects (font (size 1.27 1.27))))
        )
        (pin input line (at -17.78 10.16 0) (length 2.54)
          (name "LDO_ON" (effects (font (size 1.27 1.27))))
          (number "5" (effects (font (size 1.27 1.27))))
        )
        (pin input line (at -17.78 5.08 0) (length 2.54)
          (name "STBY" (effects (font (size 1.27 1.27))))
          (number "6" (effects (font (size 1.27 1.27))))
        )
        (pin input line (at -17.78 7.62 0) (length 2.54)
          (name "BUCK_ON" (effects (font (size 1.27 1.27))))
          (number "7" (effects (font (size 1.27 1.27))))
        )
        (pin input line (at 17.78 -17.78 180) (length 2.54)
          (name "BUCK_FB" (effects (font (size 1.27 1.27))))
          (number "8" (effects (font (size 1.27 1.27))))
        )
        (pin input line (at 17.78 -5.08 180) (length 2.54)
          (name "LDO_FB" (effects (font (size 1.27 1.27))))
          (number "9" (effects (font (size 1.27 1.27))))
        )
      )
    )
  )

  (junction (at 162.56 96.52) (diameter 1.016) (color 0 0 0 0))

  (wire (pts (xy 139.7 81.28) (xy 139.7 88.9))
    (stroke (width 0) (type solid) (color 0 0 0 0))
  )
  (wire (pts (xy 157.48 93.98) (xy 162.56 93.98))
    (stroke (width 0) (type solid) (color 0 0 0 0))
  )
  (wire (pts (xy 157.48 96.52) (xy 162.56 96.52))
    (stroke (width 0) (type solid) (color 0 0 0 0))
  )
  (wire (pts (xy 157.48 104.14) (xy 167.64 104.14))
    (stroke (width 0) (type solid) (color 0 0 0 0))
  )
  (wire (pts (xy 162.56 93.98) (xy 162.56 96.52))
    (stroke (width 0) (type solid) (color 0 0 0 0))
  )
  (wire (pts (xy 162.56 96.52) (xy 162.56 99.06))
    (stroke (width 0) (type solid) (color 0 0 0 0))
  )
  (wire (pts (xy 162.56 99.06) (xy 157.48 99.06))
    (stroke (width 0) (type solid) (color 0 0 0 0))
  )

  (hierarchical_label "VBUS" (shape input) (at 139.7 81.28 90)
    (effects (font (size 1.27 1.27)) (justify left))
  )
  (hierarchical_label "BAT" (shape output) (at 167.64 104.14 0)
    (effects (font (size 1.27 1.27)) (justify left))
  )

  (symbol (lib_id "Battery_Management:LTC3553") (at 139.7 111.76 0) (unit 1)
    (in_bom yes) (on_board yes)
    (uuid "3991dccd-caaf-47e1-bd41-86c85d1389f6")
    (property "Reference" "U2" (id 0) (at 127 84.4358 0))
    (property "Value" "LTC3553" (id 1) (at 129.54 86.7345 0))
    (property "Footprint" "Package_DFN_QFN:QFN-20-1EP_3x3mm_P0.4mm_EP1.65x1.65mm" (id 2) (at 139.7 113.03 0)
      (effects (font (size 1.27 1.27)) hide)
    )
    (property "Datasheet" "https://www.analog.com/media/en/technical-documentation/data-sheets/3553fc.pdf" (id 3) (at 139.7 113.03 0)
      (effects (font (size 1.27 1.27)) hide)
    )
  )
)
