(module "L_0402_1005Metric" (layer "F.Cu") (tedit 5B301BBE)
  (descr "Inductor SMD 0402 (1005 Metric), square (rectangular) end terminal, IPC_7351 nominal, (Body size source: http://www.tortai-tech.com/upload/download/2011102023233369053.pdf), generated with kicad-footprint-generator")
  (tags "inductor")
  (property "Sheet file" "/media/brett/OS/Users/brett/Documents/KiCAD/BuddyTracker1/BuddyTracker1/BuddyTracker1.kicad_sch")
  (property "Sheet name" "")
  (attr smd)
  (fp_text reference "REF**" (at -2.25 0.25) (layer "F.SilkS")
    (effects (font (size 1 1) (thickness 0.15)))
    (tstamp fb495af3-82b6-4746-9311-9929269d3843)
  )
  (fp_text value "30 Ohm/1.8A" (at 0 1.17) (layer "F.Fab")
    (effects (font (size 1 1) (thickness 0.15)))
    (tstamp ae967637-2192-4755-95ca-6b3e6a138620)
  )
  (fp_text user "${REFERENCE}" (at 0 0) (layer "F.Fab")
    (effects (font (size 0.25 0.25) (thickness 0.04)))
    (tstamp 18925d13-381e-4e8d-96d4-e735013df9f7)
  )
  (fp_line (start -0.93 0.47) (end -0.93 -0.47) (layer "F.CrtYd") (width 0.05) (tstamp 2cc662cb-54df-4ee1-9081-40ca220999e8))
  (fp_line (start 0.93 -0.47) (end 0.93 0.47) (layer "F.CrtYd") (width 0.05) (tstamp 5f472914-39d8-45a1-b32b-ed87dd7b4de5))
  (fp_line (start 0.93 0.47) (end -0.93 0.47) (layer "F.CrtYd") (width 0.05) (tstamp 6003b10d-56ff-469e-804c-bad639b6e9f9))
  (fp_line (start -0.93 -0.47) (end 0.93 -0.47) (layer "F.CrtYd") (width 0.05) (tstamp 993ea67b-d9ee-47e1-8197-568ebbf6f031))
  (fp_line (start 0.5 -0.25) (end 0.5 0.25) (layer "F.Fab") (width 0.1) (tstamp 2b2a1abb-e968-4975-939d-f22fe1a23696))
  (fp_line (start -0.5 -0.25) (end 0.5 -0.25) (layer "F.Fab") (width 0.1) (tstamp 2e98fd3e-a747-42ec-a124-23058c4b9c9b))
  (fp_line (start 0.5 0.25) (end -0.5 0.25) (layer "F.Fab") (width 0.1) (tstamp 4a3e211d-0eb9-48f3-b8fc-688fe29d09ad))
  (fp_line (start -0.5 0.25) (end -0.5 -0.25) (layer "F.Fab") (width 0.1) (tstamp a331dddd-2cc4-4744-8ae5-8b7d6c345ecb))
  (pad "1" smd roundrect (at -0.485 0) (size 0.59 0.64) (layers "F.Cu" "F.Paste" "F.Mask") (roundrect_rratio 0.25) (tstamp ec94a563-e0d9-4cda-a701-c292b6243f67))
  (pad "2" smd roundrect (at 0.485 0) (size 0.59 0.64) (layers "F.Cu" "F.Paste" "F.Mask") (roundrect_rratio 0.25) (tstamp 500bc82a-45a2-44d2-a63a-3a9414c7769c))
  (model "${KISYS3DMOD}/Inductor_SMD.3dshapes/L_0402_1005Metric.wrl"
    (offset (xyz 0 0 0))
    (scale (xyz 1 1 1))
    (rotate (xyz 0 0 0))
  )
)
