(module "PUIAudio_SMT_0825_S_4_R" (layer "F.Cu") (tedit 5BF326A3)
  (descr "SMD 8540, http://www.puiaudio.com/product-detail.aspx?partnumber=SMT-0825-S-4-R")
  (tags "SMD 8540")
  (property "Sheet file" "/media/brett/OS/Users/brett/Documents/KiCAD/BuddyTracker1/BuddyTracker1/BuddyTracker1.kicad_sch")
  (property "Sheet name" "")
  (attr smd)
  (fp_text reference "REF**" (at 0.2 -5.9) (layer "F.SilkS")
    (effects (font (size 1 1) (thickness 0.15)))
    (tstamp a569b728-52ec-4818-bfe8-2360caa74002)
  )
  (fp_text value "Buzzer" (at 0.1 6) (layer "F.Fab")
    (effects (font (size 1 1) (thickness 0.15)))
    (tstamp f238d927-a2d0-46da-8933-65bd45b5d2ee)
  )
  (fp_text user "+" (at -1.5 -3.25 90) (layer "F.SilkS")
    (effects (font (size 1 1) (thickness 0.15)))
    (tstamp 4cf40ffa-689e-4897-b0ec-1e86e4e8aae7)
  )
  (fp_text user "+" (at -2.75 -2.75 90) (layer "F.Fab")
    (effects (font (size 1 1) (thickness 0.15)))
    (tstamp 6ca1fe36-159e-4a8c-aafc-853d8f45e32f)
  )
  (fp_text user "${REFERENCE}" (at 0.1 0.1) (layer "F.Fab")
    (effects (font (size 1 1) (thickness 0.15)))
    (tstamp b1b0749d-86cf-4bae-9241-db5e474e0358)
  )
  (fp_line (start 4.35 2) (end 4.35 -2) (layer "F.SilkS") (width 0.12) (tstamp 3f774464-4b57-4854-9d88-281b9f1ecfd7))
  (fp_line (start 2 -4.35) (end -2 -4.35) (layer "F.SilkS") (width 0.12) (tstamp 572dc6e0-44cd-4911-bd16-3228379e5013))
  (fp_line (start -2 4.35) (end 2 4.35) (layer "F.SilkS") (width 0.12) (tstamp b19900c3-9124-425b-b107-cbf8984f616b))
  (fp_line (start -4.35 -2) (end -4.35 2) (layer "F.SilkS") (width 0.12) (tstamp e5f106d1-b062-4b7a-aaeb-65a539ed2d9c))
  (fp_line (start 4.75 -4.75) (end 4.75 4.75) (layer "F.CrtYd") (width 0.05) (tstamp 6e4bd913-3267-4e4e-b8f9-a335bf3004d3))
  (fp_line (start 4.75 4.75) (end -4.75 4.75) (layer "F.CrtYd") (width 0.05) (tstamp 6f291b1c-3620-499e-9a9a-5e56098bee6b))
  (fp_line (start -4.75 4.75) (end -4.75 -4.75) (layer "F.CrtYd") (width 0.05) (tstamp 89e8cc0b-a5ee-4713-8e0b-6bc0954ba51f))
  (fp_line (start -4.75 -4.75) (end 4.75 -4.75) (layer "F.CrtYd") (width 0.05) (tstamp a6ea9f22-f534-4394-9809-03655f7a0284))
  (fp_line (start 2.75 4.25) (end -2.75 4.25) (layer "F.Fab") (width 0.1) (tstamp 0affd73b-aec0-4c0f-a5e1-c87ebbdd49ee))
  (fp_line (start -4.25 -2.75) (end -2.75 -4.25) (layer "F.Fab") (width 0.1) (tstamp 40d22bf2-ecda-4dc3-84be-38e2d32ec214))
  (fp_line (start -4.25 2.75) (end -4.25 -2.75) (layer "F.Fab") (width 0.1) (tstamp 6511f81c-9a4f-4f33-bcad-e2035d01291d))
  (fp_line (start -2.75 -4.25) (end 2.75 -4.25) (layer "F.Fab") (width 0.1) (tstamp 9eb55017-5fab-4398-bb48-8acff8594542))
  (fp_line (start 4.25 2.75) (end 2.75 4.25) (layer "F.Fab") (width 0.1) (tstamp c5cde87a-fa67-4cee-9fa2-6f72643c1bbe))
  (fp_line (start 4.25 -2.75) (end 4.25 2.75) (layer "F.Fab") (width 0.1) (tstamp db8aae19-20ea-4572-aa1e-eb806d606a96))
  (fp_line (start -2.75 4.25) (end -4.25 2.75) (layer "F.Fab") (width 0.1) (tstamp decf8f58-9bdd-45db-8fdf-273ec4cb341f))
  (fp_line (start 2.75 -4.25) (end 4.25 -2.75) (layer "F.Fab") (width 0.1) (tstamp ecfd51c9-c82c-426f-942d-6dd409925c4c))
  (pad "1" smd rect (at -3.5 -3.5 270) (size 2 2) (layers "F.Cu" "F.Paste" "F.Mask") (tstamp 995ee04b-5abe-4cd4-9c2e-1b062cd2b56f))
  (pad "2" smd rect (at -3.5 3.5 270) (size 2 2) (layers "F.Cu" "F.Paste" "F.Mask") (tstamp 479d2bbf-a27a-4dbe-a70f-dc776a781b90))
  (pad "3" smd rect (at 3.5 3.5 270) (size 2 2) (layers "F.Cu" "F.Paste" "F.Mask") (tstamp cdba56e1-6f54-4769-a7d0-9acb0f2c26e3))
  (pad "4" smd rect (at 3.5 -3.5 270) (size 2 2) (layers "F.Cu" "F.Paste" "F.Mask") (tstamp b90ea45c-5092-4a7a-afe6-13c6f7a07d05))
  (model "${KISYS3DMOD}/Buzzer_Beeper.3dshapes/PUIAudio_SMT_0825_S_4_R.wrl"
    (offset (xyz 0 0 0))
    (scale (xyz 1 1 1))
    (rotate (xyz 0 0 0))
  )
)
