(module "QFN-24-1EP_4x4mm_P0.5mm_EP2.6x2.6mm" (layer "F.Cu") (tedit 5DC5F6A3)
  (descr "QFN, 24 Pin (http://ww1.microchip.com/downloads/en/PackagingSpec/00000049BQ.pdf#page=278), generated with kicad-footprint-generator ipc_noLead_generator.py")
  (tags "QFN NoLead")
  (property "Sheet file" "/media/brett/OS/Users/brett/Documents/KiCAD/BuddyTracker1/BuddyTracker1/BuddyTracker1.kicad_sch")
  (property "Sheet name" "")
  (attr smd)
  (fp_text reference "REF**" (at 0 -3.3 180) (layer "F.SilkS")
    (effects (font (size 1 1) (thickness 0.15)))
    (tstamp c38945e1-5f0d-42f0-9823-70ddcc6f43ce)
  )
  (fp_text value "CP2104" (at 0 3.3 180) (layer "F.Fab")
    (effects (font (size 1 1) (thickness 0.15)))
    (tstamp 93ba45a0-15b4-4264-98e0-132d7e238d2e)
  )
  (fp_text user "${REFERENCE}" (at 0 0 180) (layer "F.Fab")
    (effects (font (size 1 1) (thickness 0.15)))
    (tstamp 1adcf431-8b4b-4e10-b590-b4e3358afe35)
  )
  (fp_line (start 1.635 2.11) (end 2.11 2.11) (layer "F.SilkS") (width 0.12) (tstamp 0e1a1649-ac1a-4028-a55d-603181616707))
  (fp_line (start 1.635 -2.11) (end 2.11 -2.11) (layer "F.SilkS") (width 0.12) (tstamp 669f09cd-1bc1-4b5d-ba8c-f6aa770d402b))
  (fp_line (start 2.11 -2.11) (end 2.11 -1.635) (layer "F.SilkS") (width 0.12) (tstamp 87430140-e61e-4ef6-af38-4e90af7b1a68))
  (fp_line (start -1.635 -2.11) (end -2.11 -2.11) (layer "F.SilkS") (width 0.12) (tstamp 8f06458f-b8b5-4c16-b4f1-9183861fe4f2))
  (fp_line (start 2.11 2.11) (end 2.11 1.635) (layer "F.SilkS") (width 0.12) (tstamp b836d547-c1fb-456d-ac8c-fbc2180da782))
  (fp_line (start -1.635 2.11) (end -2.11 2.11) (layer "F.SilkS") (width 0.12) (tstamp bab6d780-f270-47f6-98f5-5838ad4ee734))
  (fp_line (start -2.11 2.11) (end -2.11 1.635) (layer "F.SilkS") (width 0.12) (tstamp d2382086-8f6d-412e-b7e9-1c177840e182))
  (fp_line (start 2.6 -2.6) (end -2.6 -2.6) (layer "F.CrtYd") (width 0.05) (tstamp 297414e4-4009-4a10-a0de-4b98cfd8d1d8))
  (fp_line (start 2.6 2.6) (end 2.6 -2.6) (layer "F.CrtYd") (width 0.05) (tstamp 42a2c5e3-ebcb-4aa7-9bb1-85a63b4da446))
  (fp_line (start -2.6 -2.6) (end -2.6 2.6) (layer "F.CrtYd") (width 0.05) (tstamp 899076ab-6df1-48db-b312-b73979956234))
  (fp_line (start -2.6 2.6) (end 2.6 2.6) (layer "F.CrtYd") (width 0.05) (tstamp 953f39c5-9292-4682-b3cb-eddd139ec95a))
  (fp_line (start -2 2) (end -2 -1) (layer "F.Fab") (width 0.1) (tstamp 2f072f93-2194-4f76-a2e8-c2f8fcfc32d4))
  (fp_line (start 2 -2) (end 2 2) (layer "F.Fab") (width 0.1) (tstamp 4ce0feeb-0460-4cbf-b2b9-be0405021631))
  (fp_line (start 2 2) (end -2 2) (layer "F.Fab") (width 0.1) (tstamp 5e9863fc-940f-45ff-8526-b7d844149917))
  (fp_line (start -2 -1) (end -1 -2) (layer "F.Fab") (width 0.1) (tstamp bbedc43d-3549-4947-a5be-4571e9ea1778))
  (fp_line (start -1 -2) (end 2 -2) (layer "F.Fab") (width 0.1) (tstamp e336efbf-cf7a-4a81-a3c9-0f8a7349f107))
  (pad "" smd roundrect (at 0.65 -0.65) (size 1.05 1.05) (layers "F.Paste") (roundrect_rratio 0.238095) (tstamp 557b9baa-88c3-4aa7-9230-7d35f28eba62))
  (pad "" smd roundrect (at -0.65 -0.65) (size 1.05 1.05) (layers "F.Paste") (roundrect_rratio 0.238095) (tstamp c67745a4-be7e-4379-ba8e-6b2d1ef0c7e5))
  (pad "" smd roundrect (at 0.65 0.65) (size 1.05 1.05) (layers "F.Paste") (roundrect_rratio 0.238095) (tstamp c7376bd4-33ee-49ff-86b5-9a248be157cf))
  (pad "" smd roundrect (at -0.65 0.65) (size 1.05 1.05) (layers "F.Paste") (roundrect_rratio 0.238095) (tstamp e9608a60-3c7f-4be0-b7d7-c15330d38bb2))
  (pad "1" smd roundrect (at -1.9375 -1.25) (size 0.825 0.25) (layers "F.Cu" "F.Paste" "F.Mask") (roundrect_rratio 0.25) (tstamp 513eaaca-37c7-4b6c-840b-924f30c725fa))
  (pad "2" smd roundrect (at -1.9375 -0.75) (size 0.825 0.25) (layers "F.Cu" "F.Paste" "F.Mask") (roundrect_rratio 0.25) (tstamp a3b6cdb2-dc60-4722-ac65-988edb058f4d))
  (pad "3" smd roundrect (at -1.9375 -0.25) (size 0.825 0.25) (layers "F.Cu" "F.Paste" "F.Mask") (roundrect_rratio 0.25) (tstamp 8e187639-1c2e-4c27-9c0d-b871dee04a25))
  (pad "4" smd roundrect (at -1.9375 0.25) (size 0.825 0.25) (layers "F.Cu" "F.Paste" "F.Mask") (roundrect_rratio 0.25) (tstamp 111949a5-36e9-4b54-902a-839c5baa49c0))
  (pad "5" smd roundrect (at -1.9375 0.75) (size 0.825 0.25) (layers "F.Cu" "F.Paste" "F.Mask") (roundrect_rratio 0.25) (tstamp 6519aa5a-3847-4af4-a78f-b64c1cd61895))
  (pad "6" smd roundrect (at -1.9375 1.25) (size 0.825 0.25) (layers "F.Cu" "F.Paste" "F.Mask") (roundrect_rratio 0.25) (tstamp e4f40c7c-3628-4f09-922e-5748e605f397))
  (pad "7" smd roundrect (at -1.25 1.9375) (size 0.25 0.825) (layers "F.Cu" "F.Paste" "F.Mask") (roundrect_rratio 0.25) (tstamp 20e296c1-ff05-4197-9bae-2e087deab4fc))
  (pad "8" smd roundrect (at -0.75 1.9375) (size 0.25 0.825) (layers "F.Cu" "F.Paste" "F.Mask") (roundrect_rratio 0.25) (tstamp 12be9814-8db3-435a-8062-af42792ee9b7))
  (pad "9" smd roundrect (at -0.25 1.9375) (size 0.25 0.825) (layers "F.Cu" "F.Paste" "F.Mask") (roundrect_rratio 0.25) (tstamp 7920f485-f84a-407f-b596-7b4900325fda))
  (pad "10" smd roundrect (at 0.25 1.9375) (size 0.25 0.825) (layers "F.Cu" "F.Paste" "F.Mask") (roundrect_rratio 0.25) (tstamp 0db9d09b-a451-487b-af6d-752ce577bc2d))
  (pad "11" smd roundrect (at 0.75 1.9375) (size 0.25 0.825) (layers "F.Cu" "F.Paste" "F.Mask") (roundrect_rratio 0.25) (tstamp 75bea588-a02b-4ec6-95c3-65ac168723ed))
  (pad "12" smd roundrect (at 1.25 1.9375) (size 0.25 0.825) (layers "F.Cu" "F.Paste" "F.Mask") (roundrect_rratio 0.25) (tstamp c1ca247a-a787-47e3-881d-e3967728b5e5))
  (pad "13" smd roundrect (at 1.9375 1.25) (size 0.825 0.25) (layers "F.Cu" "F.Paste" "F.Mask") (roundrect_rratio 0.25) (tstamp 0dd37f0e-3241-4090-8b11-62d69fb89dcd))
  (pad "14" smd roundrect (at 1.9375 0.75) (size 0.825 0.25) (layers "F.Cu" "F.Paste" "F.Mask") (roundrect_rratio 0.25) (tstamp 63dcff54-d374-4c1e-bcf8-a792c5e88bc6))
  (pad "15" smd roundrect (at 1.9375 0.25) (size 0.825 0.25) (layers "F.Cu" "F.Paste" "F.Mask") (roundrect_rratio 0.25) (tstamp f89291ca-7b25-4080-950b-90cd9137ff01))
  (pad "16" smd roundrect (at 1.9375 -0.25) (size 0.825 0.25) (layers "F.Cu" "F.Paste" "F.Mask") (roundrect_rratio 0.25) (tstamp 545141e0-f1a2-42df-a805-68e2a4c85849))
  (pad "17" smd roundrect (at 1.9375 -0.75) (size 0.825 0.25) (layers "F.Cu" "F.Paste" "F.Mask") (roundrect_rratio 0.25) (tstamp 3f19814b-5d88-4330-8e8f-2d873f183a42))
  (pad "18" smd roundrect (at 1.9375 -1.25) (size 0.825 0.25) (layers "F.Cu" "F.Paste" "F.Mask") (roundrect_rratio 0.25) (tstamp ebe761ac-cd68-483b-8a2f-4e5a3e2a760f))
  (pad "19" smd roundrect (at 1.25 -1.9375) (size 0.25 0.825) (layers "F.Cu" "F.Paste" "F.Mask") (roundrect_rratio 0.25) (tstamp 26637ab7-d932-4373-8f3d-8b14b2ee9893))
  (pad "20" smd roundrect (at 0.75 -1.9375) (size 0.25 0.825) (layers "F.Cu" "F.Paste" "F.Mask") (roundrect_rratio 0.25) (tstamp fb5278a6-bbc6-4ca8-818b-ffeb675b1795))
  (pad "21" smd roundrect (at 0.25 -1.9375) (size 0.25 0.825) (layers "F.Cu" "F.Paste" "F.Mask") (roundrect_rratio 0.25) (tstamp ef50586e-1891-4a74-afdf-a550c122a9ae))
  (pad "22" smd roundrect (at -0.25 -1.9375) (size 0.25 0.825) (layers "F.Cu" "F.Paste" "F.Mask") (roundrect_rratio 0.25) (tstamp a68bad2a-083e-4358-86e3-c5696d56fa93))
  (pad "23" smd roundrect (at -0.75 -1.9375) (size 0.25 0.825) (layers "F.Cu" "F.Paste" "F.Mask") (roundrect_rratio 0.25) (tstamp f8099b91-5ca2-4734-8788-a80798f81e3d))
  (pad "24" smd roundrect (at -1.25 -1.9375) (size 0.25 0.825) (layers "F.Cu" "F.Paste" "F.Mask") (roundrect_rratio 0.25) (tstamp 26060db5-0369-43e1-b416-43aa34b80c4f))
  (pad "25" smd rect (at 0 0) (size 2.6 2.6) (layers "F.Cu" "F.Mask") (tstamp 67a451a6-fc29-4273-ad7e-d0bea8f83a64))
  (model "${KISYS3DMOD}/Package_DFN_QFN.3dshapes/QFN-24-1EP_4x4mm_P0.5mm_EP2.6x2.6mm.wrl"
    (offset (xyz 0 0 0))
    (scale (xyz 1 1 1))
    (rotate (xyz 0 0 0))
  )
)
