(module "SolderJumper-2_P1.3mm_Open_TrianglePad1.0x1.5mm" (layer "F.Cu") (tedit 5A64794F)
  (descr "SMD Solder Jumper, 1x1.5mm Triangular Pads, 0.3mm gap, open")
  (tags "solder jumper open")
  (property "Sheet file" "/media/brett/OS/Users/brett/Documents/KiCAD/BuddyTracker1/BuddyTracker1/BuddyTracker1.kicad_sch")
  (property "Sheet name" "")
  (attr exclude_from_pos_files)
  (fp_text reference "REF**" (at 0 -1.8 -180) (layer "F.SilkS")
    (effects (font (size 1 1) (thickness 0.15)))
    (tstamp ed68f323-0203-4f59-af88-1c86d723a741)
  )
  (fp_text value "SolderJumper_2_Open" (at 0 1.9 -180) (layer "F.Fab")
    (effects (font (size 1 1) (thickness 0.15)))
    (tstamp e2cf456b-f8c1-4b5c-b9cf-b277c6cefec9)
  )
  (fp_line (start 1.4 1) (end -1.4 1) (layer "F.SilkS") (width 0.12) (tstamp 7268970a-0d1d-4bc8-96e0-f72f2da055fb))
  (fp_line (start 1.4 -1) (end 1.4 1) (layer "F.SilkS") (width 0.12) (tstamp 98959d09-e2e1-4dc4-b7ec-ce5cdf106329))
  (fp_line (start -1.4 1) (end -1.4 -1) (layer "F.SilkS") (width 0.12) (tstamp a0d42b78-29e5-4702-b4e2-af49e8fdf3fb))
  (fp_line (start -1.4 -1) (end 1.4 -1) (layer "F.SilkS") (width 0.12) (tstamp db49fae5-b8a2-4b5f-ba5e-78706499439d))
  (fp_line (start -1.65 -1.25) (end 1.65 -1.25) (layer "F.CrtYd") (width 0.05) (tstamp 89f13f8f-91e3-4757-b9a4-21321aed976b))
  (fp_line (start -1.65 -1.25) (end -1.65 1.25) (layer "F.CrtYd") (width 0.05) (tstamp b7e52088-eb27-44fc-bb71-f66f700b96dc))
  (fp_line (start 1.65 1.25) (end 1.65 -1.25) (layer "F.CrtYd") (width 0.05) (tstamp e8239d15-dbfb-445b-a548-022659cbfee7))
  (fp_line (start 1.65 1.25) (end -1.65 1.25) (layer "F.CrtYd") (width 0.05) (tstamp f1936db1-118b-4705-a08f-e28dd62a98bf))
  (pad "1" smd custom (at -0.725 0) (size 0.3 0.3) (layers "F.Cu" "F.Mask")
    (zone_connect 2)
    (options (clearance outline) (anchor rect))
    (primitives
      (gr_poly (pts
        (xy -0.5 -0.75)
        (xy 0.5 -0.75)
        (xy 1 0)
        (xy 0.5 0.75)
        (xy -0.5 0.75)
) (width 0))
    ) (tstamp bdc14f6a-1e27-4fb6-af73-ff974abe909c))
  (pad "2" smd custom (at 0.725 0) (size 0.3 0.3) (layers "F.Cu" "F.Mask")
    (zone_connect 2)
    (options (clearance outline) (anchor rect))
    (primitives
      (gr_poly (pts
        (xy -0.65 -0.75)
        (xy 0.5 -0.75)
        (xy 0.5 0.75)
        (xy -0.65 0.75)
        (xy -0.15 0)
) (width 0))
    ) (tstamp 9314b715-7902-4df1-9b41-2a2aa184d186))
)
