(module "SolderJumper-3_P2.0mm_Open_TrianglePad1.0x1.5mm_NumberLabels" (layer "F.Cu") (tedit 5A6480B6)
  (descr "SMD Solder Jumper, 1x1.5mm Triangular Pads, 0.3mm gap, open, labeled with numbers")
  (tags "solder jumper open")
  (property "Sheet file" "/media/brett/OS/Users/brett/Documents/KiCAD/BuddyTracker1/BuddyTracker1/BuddyTracker1.kicad_sch")
  (property "Sheet name" "")
  (attr exclude_from_pos_files)
  (fp_text reference "REF**" (at 0.725 -1.775) (layer "F.SilkS")
    (effects (font (size 1 1) (thickness 0.15)))
    (tstamp 9efa464f-1dc6-4683-9bff-52184ecb5f5b)
  )
  (fp_text value "SolderJumper_3_Open" (at 0.725 1.925) (layer "F.Fab")
    (effects (font (size 1 1) (thickness 0.15)))
    (tstamp 36712cc8-932c-4e72-83f8-acb16883992f)
  )
  (fp_text user "3" (at 3.4 0) (layer "F.SilkS")
    (effects (font (size 1 1) (thickness 0.15)))
    (tstamp 93a82675-7d16-4288-92d5-fd36cd3c9963)
  )
  (fp_text user "1" (at -3.35 0) (layer "F.SilkS")
    (effects (font (size 1 1) (thickness 0.15)))
    (tstamp b185435d-3e3c-4387-a7b0-deac0ce2180c)
  )
  (fp_line (start -2.75 0.95) (end -2.75 -1) (layer "F.SilkS") (width 0.12) (tstamp 34551248-7b46-4963-86ab-a0bb23c46a7c))
  (fp_line (start 2.75 -1) (end 2.75 0.95) (layer "F.SilkS") (width 0.12) (tstamp 5b62241d-2dd3-485b-b632-66785912df86))
  (fp_line (start 2.75 0.95) (end -2.75 0.95) (layer "F.SilkS") (width 0.12) (tstamp 8a58b8a3-4834-4577-bb0b-7efae5e2ad9c))
  (fp_line (start -2.75 -1) (end 2.75 -1) (layer "F.SilkS") (width 0.12) (tstamp b5195921-4955-4dc8-9e77-d7404047ba4a))
  (fp_line (start -2.98 -1.27) (end -2.98 1.25) (layer "F.CrtYd") (width 0.05) (tstamp 0cd01bf0-6ca1-402a-9d80-39de9637961d))
  (fp_line (start -2.98 -1.27) (end 3 -1.27) (layer "F.CrtYd") (width 0.05) (tstamp 4f10bd2d-40e5-406d-a2b1-c06fe4250bab))
  (fp_line (start 3 1.25) (end -2.98 1.25) (layer "F.CrtYd") (width 0.05) (tstamp c0b65cec-41c2-4d2a-87b9-5c729ea9d06d))
  (fp_line (start 3 1.25) (end 3 -1.27) (layer "F.CrtYd") (width 0.05) (tstamp dc5ab0de-474c-4052-9b11-1bbea4f737ff))
  (pad "" smd rect (at -1.2 0) (size 1.5 1.5) (layers "F.Mask") (tstamp 27c79c76-ebcb-42d1-b9f0-054a4af86fa9))
  (pad "" smd rect (at 1.2 0) (size 1.5 1.5) (layers "F.Mask") (tstamp 64020784-27a4-4097-873c-3eb8f5511603))
  (pad "1" smd custom (at -2 0) (size 0.3 0.3) (layers "F.Cu" "F.Mask")
    (zone_connect 2)
    (options (clearance outline) (anchor rect))
    (primitives
      (gr_poly (pts
        (xy -0.5 -0.75)
        (xy 0.5 -0.75)
        (xy 1 0)
        (xy 0.5 0.75)
        (xy -0.5 0.75)
) (width 0))
    ) (tstamp 82bd2eff-3b79-41b6-b738-5669953cd80b))
  (pad "2" smd custom (at 0 0) (size 0.3 0.3) (layers "F.Cu")
    (zone_connect 2)
    (options (clearance outline) (anchor rect))
    (primitives
      (gr_poly (pts
        (xy -1.2 -0.75)
        (xy 1.2 -0.75)
        (xy 0.7 0)
        (xy 1.2 0.75)
        (xy -1.2 0.75)
        (xy -0.7 0)
) (width 0))
    ) (tstamp 7948262c-3c71-4250-97db-41ba0221ed4d))
  (pad "3" smd custom (at 2 0 180) (size 0.3 0.3) (layers "F.Cu" "F.Mask")
    (zone_connect 2)
    (options (clearance outline) (anchor rect))
    (primitives
      (gr_poly (pts
        (xy -0.5 -0.75)
        (xy 0.5 -0.75)
        (xy 1 0)
        (xy 0.5 0.75)
        (xy -0.5 0.75)
) (width 0))
    ) (tstamp 6bebc7ea-46b4-4b76-8dd6-3c4176bde8d6))
)
