(module "Texas_S-PVSON-N10_ThermalVias" (layer "F.Cu") (tedit 5FA86B30)
  (descr "3x3mm Body, 0.5mm Pitch, S-PVSON-N10, DRC, http://www.ti.com/lit/ds/symlink/tps61201.pdf")
  (tags "0.5 S-PVSON-N10 DRC")
  (property "Sheet file" "/media/brett/OS/Users/brett/Documents/KiCAD/BuddyTracker1/BuddyTracker1/BuddyTracker1.kicad_sch")
  (property "Sheet name" "")
  (attr smd)
  (fp_text reference "REF**" (at -3 -1 -90) (layer "F.SilkS")
    (effects (font (size 1 1) (thickness 0.15)))
    (tstamp 180b0683-1631-41e5-a51b-74021c6af4b8)
  )
  (fp_text value "TPS61201DRC" (at 0 2.9) (layer "F.Fab")
    (effects (font (size 1 1) (thickness 0.15)))
    (tstamp 38820d0d-0755-4725-b5a0-2e9268ad7fc6)
  )
  (fp_text user "${REFERENCE}" (at 0 0) (layer "F.Fab")
    (effects (font (size 0.7 0.7) (thickness 0.1)))
    (tstamp 003e8672-5acb-4fbf-a1fb-688c8cf59a8c)
  )
  (fp_line (start 0.65 1.625) (end 1.625 1.625) (layer "F.SilkS") (width 0.12) (tstamp 1172ff16-504a-4d22-b953-1dbe8130f784))
  (fp_line (start -1.625 1.625) (end -1.625 1.4) (layer "F.SilkS") (width 0.12) (tstamp 2a1192f3-c956-4363-983c-a9b690b76f6e))
  (fp_line (start -1.625 -1.625) (end -0.65 -1.625) (layer "F.SilkS") (width 0.12) (tstamp 6186cd2f-c560-4483-ad22-da6ebbdd03d4))
  (fp_line (start -1.625 1.625) (end -0.65 1.625) (layer "F.SilkS") (width 0.12) (tstamp 629f6cc1-87ff-48a4-958e-32c7ad21a427))
  (fp_line (start 1.625 1.4) (end 1.625 1.625) (layer "F.SilkS") (width 0.12) (tstamp 9d0d8c70-544e-4af5-8550-ad2968eadc53))
  (fp_line (start 1.625 -1.4) (end 1.625 -1.625) (layer "F.SilkS") (width 0.12) (tstamp a0062b9d-8c76-481a-b929-9cb5d5ce90e6))
  (fp_line (start 0.65 -1.625) (end 1.625 -1.625) (layer "F.SilkS") (width 0.12) (tstamp c9345d89-f940-4655-bb3b-0718ad7b1266))
  (fp_line (start -2.15 -2.15) (end 2.15 -2.15) (layer "F.CrtYd") (width 0.05) (tstamp 002a4743-62c7-4335-b6db-6b3051993f85))
  (fp_line (start -2.15 2.15) (end 2.15 2.15) (layer "F.CrtYd") (width 0.05) (tstamp 88035d0a-777d-4319-8321-3f9b1907d4d5))
  (fp_line (start -2.15 -2.15) (end -2.15 2.15) (layer "F.CrtYd") (width 0.05) (tstamp 968f5e08-5eeb-4805-b7ab-b3dcb4e13864))
  (fp_line (start 2.15 -2.15) (end 2.15 2.15) (layer "F.CrtYd") (width 0.05) (tstamp eadd67b7-9c13-4a62-a204-570606048e09))
  (fp_line (start -0.775 -1.55) (end -1.55 -0.775) (layer "F.Fab") (width 0.1) (tstamp 16461e5c-a034-45d5-ab42-536afee953bd))
  (fp_line (start -1.55 1.55) (end -1.55 -0.775) (layer "F.Fab") (width 0.1) (tstamp 45aa0172-d7cb-4f54-9bf2-43ef85485c55))
  (fp_line (start 1.55 -1.55) (end 1.55 1.55) (layer "F.Fab") (width 0.1) (tstamp 54bedd94-34c2-4fb1-9d8d-8c9ac7ff4d55))
  (fp_line (start 1.55 1.55) (end -1.55 1.55) (layer "F.Fab") (width 0.1) (tstamp 621368f8-936c-4ba3-be4c-7d9eab1c89e5))
  (fp_line (start -0.775 -1.55) (end 1.55 -1.55) (layer "F.Fab") (width 0.1) (tstamp d55bb605-db5e-45fa-8ebe-fcd8d3859cbb))
  (pad "1" smd rect (at -1.76 -1) (size 0.28 0.28) (layers "F.Cu" "F.Paste" "F.Mask")
    (solder_mask_margin 0.07) (solder_paste_margin -0.025) (tstamp 402c3f6c-f51b-4066-bfc6-29661b9a884a))
  (pad "1" smd oval (at -1.475 -1) (size 0.85 0.28) (layers "F.Cu" "F.Paste" "F.Mask")
    (solder_mask_margin 0.07) (solder_paste_margin -0.025) (tstamp a35a93ab-5e26-45d8-9041-211ecdfecc48))
  (pad "2" smd oval (at -1.475 -0.5) (size 0.85 0.28) (layers "F.Cu" "F.Paste" "F.Mask")
    (solder_mask_margin 0.07) (solder_paste_margin -0.025) (tstamp 3361428d-69e7-4777-8b64-1dff83576285))
  (pad "2" smd rect (at -1.76 -0.5) (size 0.28 0.28) (layers "F.Cu" "F.Paste" "F.Mask")
    (solder_mask_margin 0.07) (solder_paste_margin -0.025) (tstamp ba703215-c689-48cb-bde6-2e6da8215454))
  (pad "3" smd rect (at -1.76 0) (size 0.28 0.28) (layers "F.Cu" "F.Paste" "F.Mask")
    (solder_mask_margin 0.07) (solder_paste_margin -0.025) (tstamp 5db59fba-5278-4c4e-b346-833f8eca5e20))
  (pad "3" smd oval (at -1.475 0) (size 0.85 0.28) (layers "F.Cu" "F.Paste" "F.Mask")
    (solder_mask_margin 0.07) (solder_paste_margin -0.025) (tstamp 87cbd857-1267-46c1-9cb3-4045bfa3c6ca))
  (pad "4" smd oval (at -1.475 0.5) (size 0.85 0.28) (layers "F.Cu" "F.Paste" "F.Mask")
    (solder_mask_margin 0.07) (solder_paste_margin -0.025) (tstamp 104d8360-8b0a-4185-9b31-810011968e8d))
  (pad "4" smd rect (at -1.76 0.5) (size 0.28 0.28) (layers "F.Cu" "F.Paste" "F.Mask")
    (solder_mask_margin 0.07) (solder_paste_margin -0.025) (tstamp f6d106de-3c9c-44d0-8641-fad0927275b0))
  (pad "5" smd rect (at -1.475 1) (size 0.85 0.28) (layers "F.Cu" "F.Paste" "F.Mask")
    (solder_mask_margin 0.07) (solder_paste_margin -0.025) (tstamp b6f04c8d-c7a6-4d3f-bde1-178c754d2b7e))
  (pad "6" smd rect (at 1.76 1) (size 0.28 0.28) (layers "F.Cu" "F.Paste" "F.Mask")
    (solder_mask_margin 0.07) (solder_paste_margin -0.025) (tstamp a2761d45-0f2d-4e0c-bf92-c064cdc1992d))
  (pad "6" smd oval (at 1.475 1) (size 0.85 0.28) (layers "F.Cu" "F.Paste" "F.Mask")
    (solder_mask_margin 0.07) (solder_paste_margin -0.025) (tstamp f05302f0-500f-48ff-a7f3-ae17e0b91bc5))
  (pad "7" smd oval (at 1.475 0.5) (size 0.85 0.28) (layers "F.Cu" "F.Paste" "F.Mask")
    (solder_mask_margin 0.07) (solder_paste_margin -0.025) (tstamp 161509f3-3a45-44c2-8ee0-7c0776ea9385))
  (pad "7" smd rect (at 1.76 0.5) (size 0.28 0.28) (layers "F.Cu" "F.Paste" "F.Mask")
    (solder_mask_margin 0.07) (solder_paste_margin -0.025) (tstamp eb8c6353-fa35-41e2-9816-7d5b1a2cd1e4))
  (pad "8" smd rect (at 1.76 0) (size 0.28 0.28) (layers "F.Cu" "F.Paste" "F.Mask")
    (solder_mask_margin 0.07) (solder_paste_margin -0.025) (tstamp a2a701b4-d0ff-49ca-b00b-a7618d5f56a5))
  (pad "8" smd oval (at 1.475 0) (size 0.85 0.28) (layers "F.Cu" "F.Paste" "F.Mask")
    (solder_mask_margin 0.07) (solder_paste_margin -0.025) (tstamp a9a0bdca-0e12-417f-9c8f-07b8ce0e003a))
  (pad "9" smd oval (at 1.475 -0.5) (size 0.85 0.28) (layers "F.Cu" "F.Paste" "F.Mask")
    (solder_mask_margin 0.07) (solder_paste_margin -0.025) (tstamp 2eccdcd5-638a-47cd-80e6-f59b3a9eb9c6))
  (pad "9" smd rect (at 1.76 -0.5) (size 0.28 0.28) (layers "F.Cu" "F.Paste" "F.Mask")
    (solder_mask_margin 0.07) (solder_paste_margin -0.025) (tstamp 4c1606ea-d90f-4008-a7a1-36c6e095511d))
  (pad "10" smd oval (at 1.475 -1) (size 0.85 0.28) (layers "F.Cu" "F.Paste" "F.Mask")
    (solder_mask_margin 0.07) (solder_paste_margin -0.025) (tstamp 6aa2001d-4981-4566-a446-7bfac028e633))
  (pad "10" smd rect (at 1.76 -1) (size 0.28 0.28) (layers "F.Cu" "F.Paste" "F.Mask")
    (solder_mask_margin 0.07) (solder_paste_margin -0.025) (tstamp a1b260b4-6ec1-49b2-a805-ba8cd7618d40))
  (pad "11" smd rect (at -0.25 1.63) (size 0.26 0.5) (layers "F.Cu" "F.Paste" "F.Mask") (tstamp 03c12fa7-3e74-4160-85ac-5eeaac8d84f8))
  (pad "11" smd rect (at 0.25 1.63) (size 0.26 0.5) (layers "F.Cu" "F.Paste" "F.Mask") (tstamp 0611adc6-11bc-48c6-afb4-a1e400acf814))
  (pad "11" thru_hole circle (at -0.5 0.75) (size 0.6 0.6) (drill 0.3) (layers *.Cu *.Mask) (tstamp 1bdc04ff-f402-4232-a679-bf7c410926cb))
  (pad "11" smd rect (at 0.25 1.55) (size 0.28 0.7) (layers "F.Cu" "F.Mask") (tstamp 1e85d8e7-fcf4-4182-ad76-8908e85e2886))
  (pad "11" smd rect (at 0 0) (size 1.65 2.4) (layers "F.Cu" "F.Mask") (tstamp 27e44d0c-198e-4655-b991-edb19cc7eb5a))
  (pad "11" thru_hole circle (at 0 0) (size 0.6 0.6) (drill 0.3) (layers *.Cu *.Mask) (tstamp 30759d6b-8b82-46ab-b3e7-3304ce70185c))
  (pad "11" smd rect (at -0.45 0.635) (size 0.68 1.05) (layers "F.Cu" "F.Paste" "F.Mask") (tstamp 32b1f59d-f99e-419e-977d-f8c15815b6ba))
  (pad "11" thru_hole circle (at 0.5 0.75) (size 0.6 0.6) (drill 0.3) (layers *.Cu *.Mask) (tstamp 36ef9e3c-3e56-4a6a-9668-a0434db2f0c4))
  (pad "11" smd rect (at 0.45 0.635) (size 0.68 1.05) (layers "F.Cu" "F.Paste" "F.Mask") (tstamp 37a04451-c3b2-42e9-aea5-4be6a65871cf))
  (pad "11" thru_hole circle (at -0.5 -0.75) (size 0.6 0.6) (drill 0.3) (layers *.Cu *.Mask) (tstamp 44a13031-f41d-4447-a91f-368f416aa3e0))
  (pad "11" smd rect (at 0 0) (size 2.3 2.8) (layers "B.Cu") (tstamp 46841267-dc3e-4f83-b656-c3f404288244))
  (pad "11" smd rect (at -0.25 -1.55) (size 0.28 0.7) (layers "F.Cu" "F.Mask") (tstamp 5187c51b-4059-4bb7-8687-ceafcc486f4d))
  (pad "11" thru_hole circle (at 0.5 -0.75) (size 0.6 0.6) (drill 0.3) (layers *.Cu *.Mask) (tstamp 57d19f0a-e0dc-4e23-bf91-07a93f3c1b48))
  (pad "11" smd rect (at -0.25 1.55) (size 0.28 0.7) (layers "F.Cu" "F.Mask") (tstamp 6aa73f32-e631-431d-abde-54b3bebace97))
  (pad "11" smd rect (at -0.25 -1.63) (size 0.26 0.5) (layers "F.Cu" "F.Paste" "F.Mask") (tstamp 772f0c2f-f53b-4210-ae49-df647cc190a5))
  (pad "11" smd rect (at 0.25 -1.63) (size 0.26 0.5) (layers "F.Cu" "F.Paste" "F.Mask") (tstamp 811bfb4a-825c-4d8f-bc15-9ca2f720a202))
  (pad "11" smd rect (at -0.45 -0.635) (size 0.68 1.05) (layers "F.Cu" "F.Paste" "F.Mask") (tstamp a623781e-dcff-4799-ad98-c2a1d2376ace))
  (pad "11" smd rect (at 0.45 -0.635) (size 0.68 1.05) (layers "F.Cu" "F.Paste" "F.Mask") (tstamp ac869cee-1a9f-439e-9e89-58044b787cd7))
  (pad "11" smd rect (at 0.25 -1.55) (size 0.28 0.7) (layers "F.Cu" "F.Mask") (tstamp adcfa91e-ca20-496c-a868-83a3e3460d00))
  (model "${KISYS3DMOD}/Package_SON.3dshapes/Texas_S-PVSON-N10.wrl"
    (offset (xyz 0 0 0))
    (scale (xyz 1 1 1))
    (rotate (xyz 0 0 0))
  )
)
