
(module TRANS_ZXTC6720MCTA (layer F.Cu) (tedit 5FFA402F)
  (descr "")
  (fp_text reference REF** (at 1.275 -2.785 0) (layer F.SilkS)
    (effects (font (size 1.0 1.0) (thickness 0.015)))
  )
  (fp_text value TRANS_ZXTC6720MCTA (at 9.28 2.665 0) (layer F.Fab)
    (effects (font (size 1.0 1.0) (thickness 0.015)))
  )
  (fp_poly
    (pts
      (xy -0.258 -1.045)
      (xy 0.258 -1.045)
      (xy 0.258 -0.254)
      (xy -0.258 -0.254)
    ) (layer F.Paste) (width 0.01)
  )
  (fp_poly
    (pts
      (xy -0.258 0.254)
      (xy 0.258 0.254)
      (xy 0.258 1.045)
      (xy -0.258 1.045)
    ) (layer F.Paste) (width 0.01)
  )
  (fp_line (start -1.0 -1.5) (end -1.0 1.5) (layer F.Fab) (width 0.1524))
  (fp_line (start -1.0 1.5) (end 1.0 1.5) (layer F.Fab) (width 0.1524))
  (fp_line (start 1.0 1.5) (end 1.0 -1.5) (layer F.Fab) (width 0.1524))
  (fp_line (start 1.0 -1.5) (end -1.0 -1.5) (layer F.Fab) (width 0.1524))
  (fp_line (start 1.0 -1.5) (end -1.0 -1.5) (layer F.SilkS) (width 0.1524))
  (fp_line (start -1.0 1.5) (end 1.0 1.5) (layer F.SilkS) (width 0.1524))
  (fp_line (start -1.4 -1.75) (end 1.4 -1.75) (layer F.CrtYd) (width 0.05))
  (fp_line (start 1.4 -1.75) (end 1.4 1.75) (layer F.CrtYd) (width 0.05))
  (fp_line (start 1.4 1.75) (end -1.4 1.75) (layer F.CrtYd) (width 0.05))
  (fp_line (start -1.4 1.75) (end -1.4 -1.75) (layer F.CrtYd) (width 0.05))
  (fp_circle (center -1.7 -1.2) (end -1.588197 -1.2) (layer F.Fab) (width 0.2))
  (fp_circle (center -1.7 -1.2) (end -1.588197 -1.2) (layer F.SilkS) (width 0.2))
  (pad 1 smd rect (at -0.9 -0.975) (size 0.5 0.4) (layers F.Cu F.Mask F.Paste))
  (pad 2 smd rect (at -0.9 -0.325) (size 0.5 0.4) (layers F.Cu F.Mask F.Paste))
  (pad 3 smd rect (at -0.9 0.325) (size 0.5 0.4) (layers F.Cu F.Mask F.Paste))
  (pad 4 smd rect (at -0.9 0.975) (size 0.5 0.4) (layers F.Cu F.Mask F.Paste))
  (pad 5 smd rect (at 0.9 0.975) (size 0.5 0.4) (layers F.Cu F.Mask F.Paste))
  (pad 6 smd rect (at 0.9 0.325) (size 0.5 0.4) (layers F.Cu F.Mask F.Paste))
  (pad 7 smd rect (at 0.9 -0.325) (size 0.5 0.4) (layers F.Cu F.Mask F.Paste))
  (pad 8 smd rect (at 0.9 -0.975) (size 0.5 0.4) (layers F.Cu F.Mask F.Paste))
  (pad 9 smd rect (at 0.0 -0.65) (size 0.73 1.12) (layers F.Cu F.Mask))
  (pad 10 smd rect (at 0.0 0.65) (size 0.73 1.12) (layers F.Cu F.Mask))
)