(module "TSOT-23-5" (layer "F.Cu") (tedit 5A02FF57)
  (descr "5-pin TSOT23 package, http://cds.linear.com/docs/en/packaging/SOT_5_05-08-1635.pdf")
  (tags "TSOT-23-5")
  (property "Sheet file" "/media/brett/OS/Users/brett/Documents/KiCAD/BuddyTracker1/BuddyTracker1/BuddyTracker1.kicad_sch")
  (property "Sheet name" "")
  (attr smd)
  (fp_text reference "REF**" (at 0 -2.45) (layer "F.SilkS")
    (effects (font (size 1 1) (thickness 0.15)))
    (tstamp c10d0da6-40f3-4664-9c7e-322ff9e68353)
  )
  (fp_text value "LT1761-3.3" (at 0 2.5) (layer "F.Fab")
    (effects (font (size 1 1) (thickness 0.15)))
    (tstamp d6919c81-5e9d-422c-b91c-f1f8cb1098c9)
  )
  (fp_text user "${REFERENCE}" (at 0 0 -90) (layer "F.Fab")
    (effects (font (size 0.5 0.5) (thickness 0.075)))
    (tstamp fb3c8ab0-2c90-48f7-a6b7-71f820e014bc)
  )
  (fp_line (start -0.88 1.56) (end 0.88 1.56) (layer "F.SilkS") (width 0.12) (tstamp 5ca3e6a9-8b8d-4315-9e92-c52c4833bd2f))
  (fp_line (start 0.88 -1.51) (end -1.55 -1.51) (layer "F.SilkS") (width 0.12) (tstamp b535b1e9-a618-47e8-98ae-b5e1254ce6a1))
  (fp_line (start -2.17 -1.7) (end -2.17 1.7) (layer "F.CrtYd") (width 0.05) (tstamp 120de401-e982-4f77-8b06-fa0f915dc0a8))
  (fp_line (start -2.17 -1.7) (end 2.17 -1.7) (layer "F.CrtYd") (width 0.05) (tstamp 15f0f6a3-2bed-422b-9420-853627c84a3b))
  (fp_line (start 2.17 1.7) (end 2.17 -1.7) (layer "F.CrtYd") (width 0.05) (tstamp 1f38bd04-510a-40af-99c3-00161b6a6e5f))
  (fp_line (start 2.17 1.7) (end -2.17 1.7) (layer "F.CrtYd") (width 0.05) (tstamp 62934ba5-fe57-4a77-af0c-2341322a69d5))
  (fp_line (start 0.88 1.45) (end -0.88 1.45) (layer "F.Fab") (width 0.1) (tstamp 19ae094e-f2cd-4316-960b-41866db9751c))
  (fp_line (start -0.88 -1) (end -0.43 -1.45) (layer "F.Fab") (width 0.1) (tstamp 1ff304df-5099-4e7b-94ed-503d98937f8c))
  (fp_line (start -0.88 -1) (end -0.88 1.45) (layer "F.Fab") (width 0.1) (tstamp 28f8bd2d-b693-47f6-ba82-a077e2f88962))
  (fp_line (start 0.88 -1.45) (end -0.43 -1.45) (layer "F.Fab") (width 0.1) (tstamp ee7a180b-06b3-4619-9bdf-796233b25507))
  (fp_line (start 0.88 -1.45) (end 0.88 1.45) (layer "F.Fab") (width 0.1) (tstamp f4236030-5942-4188-a6fb-3fda3a585f5e))
  (pad "1" smd rect (at -1.31 -0.95) (size 1.22 0.65) (layers "F.Cu" "F.Paste" "F.Mask") (tstamp cf0e6bc3-e194-4172-9d9b-c9dcaa81fccb))
  (pad "2" smd rect (at -1.31 0) (size 1.22 0.65) (layers "F.Cu" "F.Paste" "F.Mask") (tstamp 25b9d6c5-6510-4535-ab4f-a2e6a4b953b0))
  (pad "3" smd rect (at -1.31 0.95) (size 1.22 0.65) (layers "F.Cu" "F.Paste" "F.Mask") (tstamp 75c4f565-b680-48f1-a21e-4496da433813))
  (pad "4" smd rect (at 1.31 0.95) (size 1.22 0.65) (layers "F.Cu" "F.Paste" "F.Mask") (tstamp 55cad732-135d-4d44-abaa-fdfeaac9cc9b))
  (pad "5" smd rect (at 1.31 -0.95) (size 1.22 0.65) (layers "F.Cu" "F.Paste" "F.Mask") (tstamp a6300281-7d9c-4487-bdc8-3badc7aa36fe))
  (model "${KISYS3DMOD}/Package_TO_SOT_SMD.3dshapes/TSOT-23-5.wrl"
    (offset (xyz 0 0 0))
    (scale (xyz 1 1 1))
    (rotate (xyz 0 0 0))
  )
)
